{
  "data": {
    "missileModel": {
      "modelMesh": {
        "asset": "asset/Mesh/Orange Pixel Crab/g2049_theme_03_sprite_01_02_skin_01.mesh"
      },
      "type": "mesh"
    },
    "name": {
      "value": "bullet"
    }
  },
  "meta": {
    "EXPORT": {
      "setting.json": "396e3c241866e961a19ee34321b0f2c5",
      "triggers.bts": ""
    },
    "VERSION": "0.22"
  }
}