{
  "data": {
    "instances": [
      {
        "__OBJ_TYPE": "Instance_Part_Storage",
        "btsKey": "b70c28c1-5cad-4fdf-9653-14201d6a293a",
        "density": 2.93,
        "friction": 0.74,
        "id": "8733930532502601729",
        "massCenter": {
          "x": 9.128436088562,
          "y": 1.4815903902054,
          "z": -4.14328956604
        },
        "material": {
          "color": {
            "b": 0
          },
          "texture": "part_shihuizhuan.tga"
        },
        "name": "blockCoin",
        "position": {
          "x": 9.128436088562,
          "y": 1.4815903902054,
          "z": -4.14328956604
        },
        "restitution": 0.2,
        "rotation": {
          "x": 74.0
        },
        "scale": {
          "x": 0.898994,
          "y": 0.136997,
          "z": 0.898994
        },
        "shape": "3",
        "size": {
          "x": 0.89899426698685,
          "y": 0.13699735701084,
          "z": 0.89899426698685
        }
      },
      {
        "__OBJ_TYPE": "Instance_Part_Storage",
        "btsKey": "e666e0ec-b120-4de9-93da-aaf0afcf1f28",
        "density": 2.2,
        "friction": 0.37,
        "id": "8733956027453521921",
        "massCenter": {
          "x": 7.0702075958252,
          "y": 1.4355125427246,
          "z": -7.5528874397278
        },
        "position": {
          "x": 7.0702075958252,
          "y": 1.4355125427246,
          "z": -7.5528874397278
        },
        "restitution": 0.3,
        "shape": "4"
      },
      {
        "__OBJ_TYPE": "Instance_Folder",
        "id": "8733971811518021633"
      },
      {
        "__OBJ_TYPE": "Instance_Model",
        "children": [
          {
            "__OBJ_TYPE": "Instance_Part_Storage",
            "btsKey": "d4818d3c-fb74-4bd5-a9b7-88aca712dded",
            "density": 2.2,
            "friction": 0.37,
            "id": "8733974805656600577",
            "massCenter": {
              "x": -15.535541534424,
              "y": 6.5012240409851,
              "z": -12.403702735901
            },
            "position": {
              "x": -15.535541534424,
              "y": 6.5012240409851,
              "z": -12.403702735901
            },
            "restitution": 0.3,
            "shape": "2"
          },
          {
            "__OBJ_TYPE": "Instance_Part_Storage",
            "btsKey": "a82fa734-3818-417c-b740-629ae60e960e",
            "density": 2.2,
            "friction": 0.37,
            "id": "8733974805659041793",
            "massCenter": {
              "x": -15.635503768921,
              "y": 3.4903993606567,
              "z": -12.984000205994
            },
            "position": {
              "x": -15.635503768921,
              "y": 3.4903993606567,
              "z": -12.984000205994
            },
            "restitution": 0.3,
            "scale": {
              "x": 3.57697,
              "y": 5.02097,
              "z": 3.57697
            },
            "shape": "3",
            "size": {
              "x": 3.5769753456116,
              "y": 5.0209655761719,
              "z": 3.5769658088684
            }
          }
        ],
        "id": "8733974805655912449",
        "position": {
          "x": -15.635503768921,
          "y": 3.9905704259872,
          "z": -12.984000205994
        }
      }
    ]
  },
  "meta": {
    "EXPORT": {
      "setting.json": "33a6236825154eb24f035bd5cc40f02f"
    },
    "VERSION": "0.22"
  }
}