{
  "data": {
    "_clientScript": [
      {
        "path": "client/client_script"
      }
    ],
    "actorModel": {
      "actorName": {
        "asset": ""
      },
      "girlactor": {
        "asset": ""
      }
    },
    "AI_attack": {
      "enable": true
    },
    "AI_patrol": {
      "patrolDistance": 10,
      "patrolMode": "randomPath"
    },
    "boundingVolume": {
      "height": 1.7,
      "radius": 0.43,
      "type": "Capsule"
    },
    "canClick": true,
    "canRevive": true,
    "deadAction": {
      "deathHideTime": {
        "value": 60
      },
      "playDeadAction": "die_front"
    },
    "enableAI": true,
    "equip": [
      "1",
      "2"
    ],
    "hideHp": false,
    "isPlayer": true,
    "name": {
      "value": "7ce010fc-ecc8-40ac-b1d0-e9240f825e86"
    },
    "reviveTime": {
      "value": 40
    },
    "triggers": {
      "list": [
        {
          "actions": [
            {
              "__OBJ_TYPE": "Action_CreatePet",
              "components": [
                {
                  "__OBJ_TYPE": "Component_Params",
                  "params": [
                    {
                      "value": {
                        "__OBJ_TYPE": "T_Entity"
                      }
                    },
                    {
                      "value": {
                        "__OBJ_TYPE": "T_EntityEntry",
                        "rawval": "myplugin/11e08bcf-1066-4853-b0e4-55b39751f44a"
                      }
                    },
                    {
                      "value": {
                        "__OBJ_TYPE": "T_Bool",
                        "rawval": true
                      }
                    },
                    {
                      "value": {
                        "__OBJ_TYPE": "T_MapObj"
                      }
                    },
                    {
                      "value": {
                        "__OBJ_TYPE": "T_ScenePos"
                      }
                    }
                  ]
                }
              ],
              "id": {
                "value": "0feb8644-0746-42aa-8cc3-067bafdc84d5"
              },
              "pos": {
                "x": 739,
                "y": 187
              }
            }
          ],
          "custom_trigger_data": {
            "name": {
              "value": "f6c38b5b-9c7e-4cbd-832b-438e8c0c12b3"
            },
            "type": "Trigger_EntityClick"
          },
          "root": {
            "components": [
              {
                "__OBJ_TYPE": "Component_Sequence",
                "children": [
                  {
                    "action": "0feb8644-0746-42aa-8cc3-067bafdc84d5"
                  }
                ]
              }
            ],
            "id": {
              "value": "d6386664-9cf1-4f26-9bc6-186783b09baa"
            }
          },
          "type": "Trigger_EntityClick"
        }
      ]
    }
  },
  "meta": {
    "EXPORT": {
      "setting.json": "a58507ebb74ab9cec175718493ed34a8",
      "triggers.bts": "05cec5309b8d17d364298f6fbca0d2d7"
    },
    "VERSION": "0.22"
  }
}